// Jest Snapshot v1, https://goo.gl/fbAQLP

exports[`renders without crashing 1`] = `
"<div className=\\"box bc-box\\">
  <div className=\\"columns\\">
    <div className=\\"column\\">
      <withRouter(Connect(Form)) />
    </div>
    <div className=\\"column has-text-right-tablet bc-right-column\\">
      <h1 className=\\"title is-4\\">
        Курс BTC
      </h1>
      <h2 className=\\"subtitle is-5\\">
        <NumberFormat value={[undefined]} thousandSeparator=\\" \\" decimalSeparator=\\",\\" decimalScale={2} fixedDecimalScale={true} displayType=\\"text\\" suffix=\\" тг.\\" thousandsGroupStyle=\\"thousand\\" prefix=\\"\\" allowNegative={true} allowEmptyFormatting={false} allowLeadingZeros={false} isNumericString={false} type=\\"text\\" onValueChange={[Function: noop]} onChange={[Function: noop]} onKeyDown={[Function: noop]} onMouseUp={[Function: noop]} onFocus={[Function: noop]} onBlur={[Function: noop]} isAllowed={[Function: returnTrue]} getInputRef={[Function: noop]} />
      </h2>
      <Line data={{...}} options={{...}} />
    </div>
  </div>
</div>"
`;
